<?xml version="1.0" standalone="no"?>
<!DOCTYPE svg PUBLIC "-//W3C//DTD SVG 20010904//EN"
 "http://www.w3.org/TR/2001/REC-SVG-20010904/DTD/svg10.dtd">
<svg version="1.0" xmlns="http://www.w3.org/2000/svg"
 width="295.000000pt" height="295.000000pt" viewBox="0 0 295.000000 295.000000"
 preserveAspectRatio="xMidYMid meet">
<metadata>
Created by potrace 1.11, written by Peter Selinger 2001-2013
</metadata>
<g transform="translate(0.000000,295.000000) scale(0.100000,-0.100000)"
fill="#000000" stroke="none">
<path d="M0 1475 l0 -1475 1475 0 1475 0 0 1475 0 1475 -1475 0 -1475 0 0
-1475z m2022 1007 c54 -24 130 -91 164 -143 12 -20 29 -60 38 -89 40 -135 1
-268 -108 -368 -73 -68 -124 -86 -236 -87 -84 0 -101 3 -152 28 -156 77 -238
249 -198 416 26 109 131 221 241 257 62 20 190 13 251 -14z m-605 -1724 c23
-25 60 -23 78 6 13 20 16 49 13 160 -2 75 -2 136 -1 136 2 0 24 -16 50 -36 64
-49 126 -75 196 -81 l57 -6 0 -92 c0 -142 -33 -228 -116 -306 -52 -48 -81 -64
-144 -83 -170 -51 -350 38 -425 209 -12 27 -19 76 -23 156 l-4 116 59 5 c66 6
150 42 203 87 l35 29 3 -141 c2 -113 6 -145 19 -159z"/>
<path d="M1800 2278 c-18 -13 -42 -35 -54 -50 -26 -37 -27 -112 0 -159 21 -37
92 -79 133 -79 40 0 109 39 131 74 27 44 27 120 0 164 -44 71 -143 95 -210 50z"/>
</g>
</svg>
