<?xml version="1.0" encoding="utf-8"?>
<!-- Generator: Adobe Illustrator 19.0.1, SVG Export Plug-In . SVG Version: 6.00 Build 0)  -->
<svg version="1.1" id="Слой_1" xmlns="http://www.w3.org/2000/svg" xmlns:xlink="http://www.w3.org/1999/xlink" x="0px" y="0px"
	 viewBox="-474 273 11 16" style="enable-background:new -474 273 11 16;" xml:space="preserve">
<path d="M-464.8,281.7l-5.6,5.6c-0.3,0.4-0.9,0.4-1.3,0c0,0,0,0,0,0c-0.4-0.4-0.4-0.9,0-1.3c0,0,0,0,0,0l4.9-4.9l-4.9-4.9
	c-0.4-0.4-0.4-0.9,0-1.3c0,0,0,0,0,0c0.3-0.4,0.9-0.4,1.3,0c0,0,0,0,0,0l5.6,5.6C-464.5,280.7-464.5,281.3-464.8,281.7
	C-464.8,281.7-464.8,281.7-464.8,281.7L-464.8,281.7z"/>
</svg>
