<?xml version="1.0" encoding="utf-8"?>
<!-- Generator: Adobe Illustrator 19.0.1, SVG Export Plug-In . SVG Version: 6.00 Build 0)  -->
<svg version="1.1" id="Слой_1" xmlns="http://www.w3.org/2000/svg" xmlns:xlink="http://www.w3.org/1999/xlink" x="0px" y="0px"
	 viewBox="-455 259 48 43" style="enable-background:new -455 259 48 43;" xml:space="preserve">
<path d="M-419.2,277.8v12.1c0,0.4-0.2,0.7-0.5,0.9l-5.3,3.3c-0.5,0.3-1.1,0.2-1.4-0.3c-0.1-0.2-0.2-0.4-0.2-0.6v-11.5l-15.3-8.7
	l-8.6,5.4l14.4,8.2l7-4.4c0.5-0.3,1.1-0.2,1.4,0.3c0.3,0.5,0.2,1.1-0.3,1.4l0,0l-7.5,4.7c-0.3,0.2-0.7,0.2-1,0l-16.4-9.3
	c-0.5-0.3-0.7-0.9-0.4-1.4c0.1-0.1,0.2-0.3,0.3-0.4l10.5-6.6h0l5.3-3.3l10.5-6.6c0.3-0.2,0.7-0.2,1,0l16.4,9.3
	c0.5,0.3,0.7,0.9,0.4,1.4c-0.1,0.1-0.2,0.3-0.3,0.4l-7.5,4.7c-0.4,0.3-1.1,0.2-1.4-0.2c-0.3-0.4-0.2-1.1,0.2-1.4
	c0,0,0.1-0.1,0.1-0.1l6.1-3.8L-426,263l-8.6,5.4l14.9,8.5l0.1,0.1l0,0l0.1,0.1l0,0c0,0,0.1,0.1,0.1,0.1v0l0,0.1l0,0l0,0l0,0.1l0,0
	c0,0.1,0,0.2,0.1,0.2L-419.2,277.8L-419.2,277.8z M-421.2,289.4v-9.8l-1.1,0.7c-0.5,0.3-1.1,0.2-1.4-0.3c0,0,0,0,0,0
	c-0.3-0.5-0.1-1.1,0.3-1.4l1.3-0.8l-14.4-8.2l-3.3,2.1l14.9,8.5c0.3,0.2,0.5,0.5,0.5,0.9v10.3L-421.2,289.4z M-408.8,274.7
	c0.3,0.5,0.2,1.1-0.3,1.4l-7.5,4.7c-0.5,0.3-1.1,0.2-1.4-0.3c0,0,0,0,0,0c-0.3-0.5-0.1-1.1,0.3-1.4l7.5-4.7
	C-409.7,274.1-409.1,274.2-408.8,274.7L-408.8,274.7z M-427.6,286.5c0.3,0.5,0.1,1.1-0.3,1.4l-7.5,4.7c-0.3,0.2-0.7,0.2-1,0
	l-16.4-9.3c-0.5-0.3-0.7-0.9-0.4-1.4c0.3-0.5,0.9-0.7,1.4-0.4l15.8,9l7-4.4C-428.5,285.9-427.9,286.1-427.6,286.5L-427.6,286.5z
	 M-408.8,278.7c0.3,0.5,0.2,1.1-0.3,1.4l-7.5,4.7c-0.5,0.3-1.1,0.2-1.4-0.3c0,0,0,0,0,0c-0.3-0.5-0.1-1.1,0.3-1.4l7.5-4.7
	C-409.7,278.1-409.1,278.2-408.8,278.7L-408.8,278.7z M-427.6,290.6c0.3,0.5,0.1,1.1-0.3,1.4l-7.5,4.7c-0.3,0.2-0.7,0.2-1,0
	l-16.4-9.3c-0.5-0.3-0.7-0.9-0.4-1.4c0.3-0.5,0.9-0.7,1.4-0.4l0,0l15.8,9l7-4.4C-428.5,289.9-427.9,290.1-427.6,290.6L-427.6,290.6z
	 M-408.8,282.8c0.3,0.5,0.2,1.1-0.3,1.4l-7.5,4.7c-0.5,0.3-1.1,0.2-1.4-0.3c0,0,0,0,0,0c-0.3-0.5-0.1-1.1,0.3-1.4l7.5-4.7
	C-409.7,282.1-409.1,282.3-408.8,282.8L-408.8,282.8z M-427.6,294.6c0.3,0.5,0.1,1.1-0.3,1.4l-7.5,4.7c-0.3,0.2-0.7,0.2-1,0
	l-16.4-9.3c-0.5-0.3-0.7-0.9-0.4-1.4c0.3-0.5,0.9-0.7,1.4-0.4l15.8,9l7-4.4C-428.5,294-427.9,294.1-427.6,294.6L-427.6,294.6z"/>
</svg>
